Relogio_digital/simulation/qsim/Relogio.msim.vcd
$comment
	File created using the following command:
		vcd file Relogio.msim.vcd -direction
$end
$date
	Tue Oct 10 14:05:58 2017
$end
$version
	ModelSim Version 10.5b
$end
$timescale
	1ps
$end

$scope module relogio_vhd_vec_tst $end
$var wire 1 ! clk1 $end
$var wire 1 " hours_d [3] $end
$var wire 1 # hours_d [2] $end
$var wire 1 $ hours_d [1] $end
$var wire 1 % hours_d [0] $end
$var wire 1 & hours_u [3] $end
$var wire 1 ' hours_u [2] $end
$var wire 1 ( hours_u [1] $end
$var wire 1 ) hours_u [0] $end
$var wire 1 * minutes_d [3] $end
$var wire 1 + minutes_d [2] $end
$var wire 1 , minutes_d [1] $end
$var wire 1 - minutes_d [0] $end
$var wire 1 . minutes_u [3] $end
$var wire 1 / minutes_u [2] $end
$var wire 1 0 minutes_u [1] $end
$var wire 1 1 minutes_u [0] $end
$var wire 1 2 seconds_d [3] $end
$var wire 1 3 seconds_d [2] $end
$var wire 1 4 seconds_d [1] $end
$var wire 1 5 seconds_d [0] $end
$var wire 1 6 seconds_u [3] $end
$var wire 1 7 seconds_u [2] $end
$var wire 1 8 seconds_u [1] $end
$var wire 1 9 seconds_u [0] $end

$scope module i1 $end
$var wire 1 : gnd $end
$var wire 1 ; vcc $end
$var wire 1 < unknown $end
$var wire 1 = devoe $end
$var wire 1 > devclrn $end
$var wire 1 ? devpor $end
$var wire 1 @ ww_devoe $end
$var wire 1 A ww_devclrn $end
$var wire 1 B ww_devpor $end
$var wire 1 C ww_clk1 $end
$var wire 1 D ww_seconds_u [3] $end
$var wire 1 E ww_seconds_u [2] $end
$var wire 1 F ww_seconds_u [1] $end
$var wire 1 G ww_seconds_u [0] $end
$var wire 1 H ww_minutes_u [3] $end
$var wire 1 I ww_minutes_u [2] $end
$var wire 1 J ww_minutes_u [1] $end
$var wire 1 K ww_minutes_u [0] $end
$var wire 1 L ww_hours_u [3] $end
$var wire 1 M ww_hours_u [2] $end
$var wire 1 N ww_hours_u [1] $end
$var wire 1 O ww_hours_u [0] $end
$var wire 1 P ww_seconds_d [3] $end
$var wire 1 Q ww_seconds_d [2] $end
$var wire 1 R ww_seconds_d [1] $end
$var wire 1 S ww_seconds_d [0] $end
$var wire 1 T ww_minutes_d [3] $end
$var wire 1 U ww_minutes_d [2] $end
$var wire 1 V ww_minutes_d [1] $end
$var wire 1 W ww_minutes_d [0] $end
$var wire 1 X ww_hours_d [3] $end
$var wire 1 Y ww_hours_d [2] $end
$var wire 1 Z ww_hours_d [1] $end
$var wire 1 [ ww_hours_d [0] $end
$var wire 1 \ \auxClock~clkctrl_INCLK_bus\ [3] $end
$var wire 1 ] \auxClock~clkctrl_INCLK_bus\ [2] $end
$var wire 1 ^ \auxClock~clkctrl_INCLK_bus\ [1] $end
$var wire 1 _ \auxClock~clkctrl_INCLK_bus\ [0] $end
$var wire 1 ` \clk1~inputclkctrl_INCLK_bus\ [3] $end
$var wire 1 a \clk1~inputclkctrl_INCLK_bus\ [2] $end
$var wire 1 b \clk1~inputclkctrl_INCLK_bus\ [1] $end
$var wire 1 c \clk1~inputclkctrl_INCLK_bus\ [0] $end
$var wire 1 d \seconds_u[0]~output_o\ $end
$var wire 1 e \seconds_u[1]~output_o\ $end
$var wire 1 f \seconds_u[2]~output_o\ $end
$var wire 1 g \seconds_u[3]~output_o\ $end
$var wire 1 h \minutes_u[0]~output_o\ $end
$var wire 1 i \minutes_u[1]~output_o\ $end
$var wire 1 j \minutes_u[2]~output_o\ $end
$var wire 1 k \minutes_u[3]~output_o\ $end
$var wire 1 l \hours_u[0]~output_o\ $end
$var wire 1 m \hours_u[1]~output_o\ $end
$var wire 1 n \hours_u[2]~output_o\ $end
$var wire 1 o \hours_u[3]~output_o\ $end
$var wire 1 p \seconds_d[0]~output_o\ $end
$var wire 1 q \seconds_d[1]~output_o\ $end
$var wire 1 r \seconds_d[2]~output_o\ $end
$var wire 1 s \seconds_d[3]~output_o\ $end
$var wire 1 t \minutes_d[0]~output_o\ $end
$var wire 1 u \minutes_d[1]~output_o\ $end
$var wire 1 v \minutes_d[2]~output_o\ $end
$var wire 1 w \minutes_d[3]~output_o\ $end
$var wire 1 x \hours_d[0]~output_o\ $end
$var wire 1 y \hours_d[1]~output_o\ $end
$var wire 1 z \hours_d[2]~output_o\ $end
$var wire 1 { \hours_d[3]~output_o\ $end
$var wire 1 | \clk1~input_o\ $end
$var wire 1 } \clk1~inputclkctrl_outclk\ $end
$var wire 1 ~ \Add0~15\ $end
$var wire 1 !! \Add0~16_combout\ $end
$var wire 1 "! \Add0~17\ $end
$var wire 1 #! \Add0~18_combout\ $end
$var wire 1 $! \Add0~19\ $end
$var wire 1 %! \Add0~20_combout\ $end
$var wire 1 &! \Add0~21\ $end
$var wire 1 '! \Add0~22_combout\ $end
$var wire 1 (! \Add0~23\ $end
$var wire 1 )! \Add0~24_combout\ $end
$var wire 1 *! \Add0~25\ $end
$var wire 1 +! \Add0~26_combout\ $end
$var wire 1 ,! \Add0~27\ $end
$var wire 1 -! \Add0~28_combout\ $end
$var wire 1 .! \Add0~29\ $end
$var wire 1 /! \Add0~30_combout\ $end
$var wire 1 0! \Add0~31\ $end
$var wire 1 1! \Add0~32_combout\ $end
$var wire 1 2! \Add0~33\ $end
$var wire 1 3! \Add0~34_combout\ $end
$var wire 1 4! \Add0~35\ $end
$var wire 1 5! \Add0~36_combout\ $end
$var wire 1 6! \Add0~37\ $end
$var wire 1 7! \Add0~38_combout\ $end
$var wire 1 8! \Add0~39\ $end
$var wire 1 9! \Add0~40_combout\ $end
$var wire 1 :! \Add0~41\ $end
$var wire 1 ;! \Add0~42_combout\ $end
$var wire 1 <! \Add0~43\ $end
$var wire 1 =! \Add0~44_combout\ $end
$var wire 1 >! \Add0~45\ $end
$var wire 1 ?! \Add0~46_combout\ $end
$var wire 1 @! \Equal0~6_combout\ $end
$var wire 1 A! \Add0~47\ $end
$var wire 1 B! \Add0~48_combout\ $end
$var wire 1 C! \Add0~49\ $end
$var wire 1 D! \Add0~50_combout\ $end
$var wire 1 E! \Add0~51\ $end
$var wire 1 F! \Add0~52_combout\ $end
$var wire 1 G! \Add0~53\ $end
$var wire 1 H! \Add0~54_combout\ $end
$var wire 1 I! \Add0~55\ $end
$var wire 1 J! \Add0~56_combout\ $end
$var wire 1 K! \Add0~57\ $end
$var wire 1 L! \Add0~58_combout\ $end
$var wire 1 M! \Add0~59\ $end
$var wire 1 N! \Add0~60_combout\ $end
$var wire 1 O! \Add0~61\ $end
$var wire 1 P! \Add0~62_combout\ $end
$var wire 1 Q! \Equal0~8_combout\ $end
$var wire 1 R! \Equal0~7_combout\ $end
$var wire 1 S! \Equal0~5_combout\ $end
$var wire 1 T! \Equal0~9_combout\ $end
$var wire 1 U! \Add0~0_combout\ $end
$var wire 1 V! \count~2_combout\ $end
$var wire 1 W! \Add0~1\ $end
$var wire 1 X! \Add0~2_combout\ $end
$var wire 1 Y! \count~1_combout\ $end
$var wire 1 Z! \Add0~3\ $end
$var wire 1 [! \Add0~4_combout\ $end
$var wire 1 \! \count~0_combout\ $end
$var wire 1 ]! \Add0~5\ $end
$var wire 1 ^! \Add0~6_combout\ $end
$var wire 1 _! \Add0~7\ $end
$var wire 1 `! \Add0~8_combout\ $end
$var wire 1 a! \Add0~9\ $end
$var wire 1 b! \Add0~10_combout\ $end
$var wire 1 c! \Add0~11\ $end
$var wire 1 d! \Add0~12_combout\ $end
$var wire 1 e! \Add0~13\ $end
$var wire 1 f! \Add0~14_combout\ $end
$var wire 1 g! \Equal0~1_combout\ $end
$var wire 1 h! \Equal0~2_combout\ $end
$var wire 1 i! \Equal0~3_combout\ $end
$var wire 1 j! \Equal0~0_combout\ $end
$var wire 1 k! \Equal0~4_combout\ $end
$var wire 1 l! \auxClock~0_combout\ $end
$var wire 1 m! \auxClock~feeder_combout\ $end
$var wire 1 n! \auxClock~q\ $end
$var wire 1 o! \auxClock~clkctrl_outclk\ $end
$var wire 1 p! \auxFuncaoULA[0]~feeder_combout\ $end
$var wire 1 q! \FD|registradorE|DOUT[1]~feeder_combout\ $end
$var wire 1 r! \FD|registradorD|DOUT[1]~feeder_combout\ $end
$var wire 1 s! \FD|registradorC|DOUT[1]~feeder_combout\ $end
$var wire 1 t! \FD|registradorA|DOUT[1]~feeder_combout\ $end
$var wire 1 u! \auxResetA~feeder_combout\ $end
$var wire 1 v! \auxResetA~q\ $end
$var wire 1 w! \FD|registradorA|DOUT[3]~feeder_combout\ $end
$var wire 1 x! \auxFuncaoMUX~2_combout\ $end
$var wire 1 y! \auxFuncaoMUX~4_combout\ $end
$var wire 1 z! \FD|MuxRelogio|Mux1~0_combout\ $end
$var wire 1 {! \FD|registradorD|DOUT[2]~feeder_combout\ $end
$var wire 1 |! \FD|registradorC|DOUT[2]~feeder_combout\ $end
$var wire 1 }! \FD|registradorB|DOUT[2]~feeder_combout\ $end
$var wire 1 ~! \FD|MuxRelogio|Mux1~1_combout\ $end
$var wire 1 !" \FD|MuxRelogio|Mux1~2_combout\ $end
$var wire 1 "" \FD|MuxRelogio|Mux1~3_combout\ $end
$var wire 1 #" \FD|registradorE|DOUT[0]~feeder_combout\ $end
$var wire 1 $" \FD|MuxRelogio|Mux3~2_combout\ $end
$var wire 1 %" \FD|registradorC|DOUT[0]~feeder_combout\ $end
$var wire 1 &" \FD|registradorB|DOUT[0]~feeder_combout\ $end
$var wire 1 '" \FD|MuxRelogio|Mux3~0_combout\ $end
$var wire 1 (" \FD|MuxRelogio|Mux3~1_combout\ $end
$var wire 1 )" \FD|MuxRelogio|Mux3~3_combout\ $end
$var wire 1 *" \FD|ULA|Mux1~0_combout\ $end
$var wire 1 +" \FD|registradorA|DOUT[2]~feeder_combout\ $end
$var wire 1 ," \Equal1~0_combout\ $end
$var wire 1 -" \auxFuncaoMUX[1]~6_combout\ $end
$var wire 1 ." \auxResetB~q\ $end
$var wire 1 /" \FD|registradorC|DOUT[3]~feeder_combout\ $end
$var wire 1 0" \auxFuncaoMUX[1]~0_combout\ $end
$var wire 1 1" \auxFuncaoMUX[1]~5_combout\ $end
$var wire 1 2" \auxResetC~q\ $end
$var wire 1 3" \Equal4~0_combout\ $end
$var wire 1 4" \auxFuncaoMUX~1_combout\ $end
$var wire 1 5" \FD|MuxRelogio|Mux0~0_combout\ $end
$var wire 1 6" \FD|registradorB|DOUT[3]~feeder_combout\ $end
$var wire 1 7" \FD|MuxRelogio|Mux0~1_combout\ $end
$var wire 1 8" \FD|MuxRelogio|Mux0~2_combout\ $end
$var wire 1 9" \FD|MuxRelogio|Mux0~3_combout\ $end
$var wire 1 :" \FD|MuxRelogio|Mux2~1_combout\ $end
$var wire 1 ;" \FD|MuxRelogio|Mux2~2_combout\ $end
$var wire 1 <" \FD|ULA|Add0~0_combout\ $end
$var wire 1 =" \FD|ULA|Add0~1_combout\ $end
$var wire 1 >" \FD|ULA|Mux0~0_combout\ $end
$var wire 1 ?" \auxFuncaoMUX~3_combout\ $end
$var wire 1 @" \auxFuncaoMUX~7_combout\ $end
$var wire 1 A" \auxResetE~q\ $end
$var wire 1 B" \FD|MuxRelogio|Mux2~0_combout\ $end
$var wire 1 C" \FD|MuxRelogio|Mux2~3_combout\ $end
$var wire 1 D" \FD|ULA|Mux2~0_combout\ $end
$var wire 1 E" \FD|registradorB|DOUT[1]~feeder_combout\ $end
$var wire 1 F" \Equal2~0_combout\ $end
$var wire 1 G" \auxResetD~0_combout\ $end
$var wire 1 H" \auxResetD~feeder_combout\ $end
$var wire 1 I" \auxResetD~q\ $end
$var wire 1 J" \FD|ULA|Mux3~0_combout\ $end
$var wire 1 K" count [31] $end
$var wire 1 L" count [30] $end
$var wire 1 M" count [29] $end
$var wire 1 N" count [28] $end
$var wire 1 O" count [27] $end
$var wire 1 P" count [26] $end
$var wire 1 Q" count [25] $end
$var wire 1 R" count [24] $end
$var wire 1 S" count [23] $end
$var wire 1 T" count [22] $end
$var wire 1 U" count [21] $end
$var wire 1 V" count [20] $end
$var wire 1 W" count [19] $end
$var wire 1 X" count [18] $end
$var wire 1 Y" count [17] $end
$var wire 1 Z" count [16] $end
$var wire 1 [" count [15] $end
$var wire 1 \" count [14] $end
$var wire 1 ]" count [13] $end
$var wire 1 ^" count [12] $end
$var wire 1 _" count [11] $end
$var wire 1 `" count [10] $end
$var wire 1 a" count [9] $end
$var wire 1 b" count [8] $end
$var wire 1 c" count [7] $end
$var wire 1 d" count [6] $end
$var wire 1 e" count [5] $end
$var wire 1 f" count [4] $end
$var wire 1 g" count [3] $end
$var wire 1 h" count [2] $end
$var wire 1 i" count [1] $end
$var wire 1 j" count [0] $end
$var wire 1 k" \FD|registradorA|DOUT\ [3] $end
$var wire 1 l" \FD|registradorA|DOUT\ [2] $end
$var wire 1 m" \FD|registradorA|DOUT\ [1] $end
$var wire 1 n" \FD|registradorA|DOUT\ [0] $end
$var wire 1 o" \FD|registradorC|DOUT\ [3] $end
$var wire 1 p" \FD|registradorC|DOUT\ [2] $end
$var wire 1 q" \FD|registradorC|DOUT\ [1] $end
$var wire 1 r" \FD|registradorC|DOUT\ [0] $end
$var wire 1 s" auxFuncaoMUX [2] $end
$var wire 1 t" auxFuncaoMUX [1] $end
$var wire 1 u" auxFuncaoMUX [0] $end
$var wire 1 v" \FD|registradorE|DOUT\ [3] $end
$var wire 1 w" \FD|registradorE|DOUT\ [2] $end
$var wire 1 x" \FD|registradorE|DOUT\ [1] $end
$var wire 1 y" \FD|registradorE|DOUT\ [0] $end
$var wire 1 z" \FD|registradorB|DOUT\ [3] $end
$var wire 1 {" \FD|registradorB|DOUT\ [2] $end
$var wire 1 |" \FD|registradorB|DOUT\ [1] $end
$var wire 1 }" \FD|registradorB|DOUT\ [0] $end
$var wire 1 ~" \FD|registradorD|DOUT\ [3] $end
$var wire 1 !# \FD|registradorD|DOUT\ [2] $end
$var wire 1 "# \FD|registradorD|DOUT\ [1] $end
$var wire 1 ## \FD|registradorD|DOUT\ [0] $end
$var wire 1 $# auxFuncaoULA [2] $end
$var wire 1 %# auxFuncaoULA [1] $end
$var wire 1 &# auxFuncaoULA [0] $end
$var wire 1 '# \FD|registradorF|DOUT\ [3] $end
$var wire 1 (# \FD|registradorF|DOUT\ [2] $end
$var wire 1 )# \FD|registradorF|DOUT\ [1] $end
$var wire 1 *# \FD|registradorF|DOUT\ [0] $end
$var wire 1 +# \ALT_INV_auxResetE~q\ $end
$var wire 1 ,# \ALT_INV_auxResetB~q\ $end
$var wire 1 -# \ALT_INV_auxResetC~q\ $end
$var wire 1 .# \ALT_INV_auxResetA~q\ $end
$var wire 1 /# \ALT_INV_auxResetD~q\ $end
$upscope $end
$upscope $end
$enddefinitions $end
#0
$dumpvars
0!
0:
1;
x<
1=
1>
1?
1@
1A
1B
0C
0d
0e
0f
0g
0h
0i
0j
0k
0l
0m
0n
0o
0p
0q
0r
0s
0t
0u
0v
0w
0x
0y
0z
0{
0|
0}
1~
0!!
0"!
0#!
1$!
0%!
0&!
0'!
1(!
0)!
0*!
0+!
1,!
0-!
0.!
0/!
10!
01!
02!
03!
14!
05!
06!
07!
18!
09!
0:!
0;!
1<!
0=!
0>!
0?!
1@!
1A!
0B!
0C!
0D!
1E!
0F!
0G!
0H!
1I!
0J!
0K!
0L!
1M!
0N!
0O!
0P!
1Q!
1R!
1S!
1T!
0U!
1V!
1W!
1X!
1Y!
1Z!
0[!
0\!
0]!
0^!
1_!
0`!
0a!
0b!
1c!
0d!
0e!
0f!
1g!
1h!
1i!
0j!
0k!
0l!
0m!
0n!
0o!
1p!
0q!
0r!
0s!
0t!
0u!
0v!
0w!
0x!
0y!
0z!
0{!
0|!
0}!
0~!
0!"
0""
0#"
0$"
0%"
0&"
0'"
0("
0)"
0*"
0+"
0,"
0-"
0."
0/"
00"
01"
02"
03"
04"
05"
06"
07"
08"
09"
0:"
0;"
0<"
0="
0>"
0?"
0@"
0A"
0B"
0C"
0D"
0E"
0F"
0G"
0H"
0I"
0J"
1+#
1,#
1-#
1.#
1/#
06
07
08
09
0.
0/
00
01
0&
0'
0(
0)
02
03
04
05
0*
0+
0,
0-
0"
0#
0$
0%
0D
0E
0F
0G
0H
0I
0J
0K
0L
0M
0N
0O
0P
0Q
0R
0S
0T
0U
0V
0W
0X
0Y
0Z
0[
0K"
0L"
0M"
0N"
0O"
0P"
0Q"
0R"
0S"
0T"
0U"
0V"
0W"
0X"
0Y"
0Z"
0["
0\"
0]"
0^"
0_"
0`"
0a"
0b"
0c"
0d"
0e"
0f"
0g"
0h"
0i"
0j"
0k"
0l"
0m"
0n"
0o"
0p"
0q"
0r"
xs"
0t"
0u"
0v"
0w"
0x"
0y"
0z"
0{"
0|"
0}"
0~"
0!#
0"#
0##
x$#
x%#
0&#
0'#
0(#
0)#
0*#
1`
1a
1b
0c
1\
1]
1^
0_
$end
#700
1!
1C
1|
1c
1}
1j"
1i"
0X!
0Z!
1U!
0W!
1X!
1Z!
0V!
1[!
0Y!
1\!
0[!
1Y!
0\!
#1400
0!
0C
0|
0c
0}
#2100
1!
1C
1|
1c
1}
0j"
0U!
1W!
0X!
0Z!
1V!
1[!
0Y!
1\!
#2800
0!
0C
0|
0c
0}
#3500
1!
1C
1|
1c
1}
1j"
0i"
1h"
0[!
1]!
1X!
1Z!
1U!
0W!
0X!
0V!
1[!
0]!
1Y!
1^!
0\!
0^!
1\!
0Y!
#4200
0!
0C
0|
0c
0}
#4900
1!
1C
1|
1c
1}
0j"
0U!
1W!
1j!
1k!
1X!
1V!
0V!
0\!
1l!
1m!
#5600
0!
0C
0|
0c
0}
#6300
1!
1C
1|
1c
1}
0h"
1n!
1_
0l!
0[!
0j!
0k!
0m!
1o!
1V!
1Y!
1l!
1&#
1m!
1J"
1#"
1%"
1&"
#7000
0!
0C
0|
0c
0}
#7700
1!
1C
1|
1c
1}
1j"
1i"
0X!
0Z!
1U!
0W!
1X!
1Z!
0V!
1[!
0Y!
1\!
0[!
1Y!
0\!
#8400
0!
0C
0|
0c
0}
#9100
1!
1C
1|
1c
1}
0j"
0U!
1W!
0X!
0Z!
1V!
1[!
0Y!
1\!
#9800
0!
0C
0|
0c
0}
#10500
1!
1C
1|
1c
1}
1j"
0i"
1h"
0[!
1]!
1X!
1Z!
1U!
0W!
0X!
0V!
1[!
0]!
1Y!
1^!
0\!
0^!
1\!
0Y!
#11200
0!
0C
0|
0c
0}
#11900
1!
1C
1|
1c
1}
0j"
0U!
1W!
1j!
1k!
1X!
1V!
0V!
0\!
0l!
0m!
#12600
0!
0C
0|
0c
0}
#13300
1!
1C
1|
1c
1}
0h"
0n!
0_
1l!
0[!
0j!
0k!
1m!
0o!
1V!
1Y!
0l!
0m!
#14000
0!
0C
0|
0c
0}
#14700
1!
1C
1|
1c
1}
1j"
1i"
0X!
0Z!
1U!
0W!
1X!
1Z!
0V!
1[!
0Y!
1\!
0[!
1Y!
0\!
#15400
0!
0C
0|
0c
0}
#16100
1!
1C
1|
1c
1}
0j"
0U!
1W!
0X!
0Z!
1V!
1[!
0Y!
1\!
#16800
0!
0C
0|
0c
0}
#17500
1!
1C
1|
1c
1}
1j"
0i"
1h"
0[!
1]!
1X!
1Z!
1U!
0W!
0X!
0V!
1[!
0]!
1Y!
1^!
0\!
0^!
1\!
0Y!
#18200
0!
0C
0|
0c
0}
#18900
1!
1C
1|
1c
1}
0j"
0U!
1W!
1j!
1k!
1X!
1V!
0V!
0\!
1l!
1m!
#19600
0!
0C
0|
0c
0}
#20300
1!
1C
1|
1c
1}
0h"
1n!
1_
0l!
0[!
0j!
0k!
0m!
1o!
1V!
1Y!
1l!
1n"
1m!
1'"
1("
1d
1)"
0J"
1G
19
0#"
0%"
0&"
1D"
1q!
1r!
1s!
1t!
1E"
#21000
0!
0C
0|
0c
0}
#21700
1!
1C
1|
1c
1}
1j"
1i"
0X!
0Z!
1U!
0W!
1X!
1Z!
0V!
1[!
0Y!
1\!
0[!
1Y!
0\!
#22400
0!
0C
0|
0c
0}
#23100
1!
1C
1|
1c
1}
0j"
0U!
1W!
0X!
0Z!
1V!
1[!
0Y!
1\!
#23800
0!
0C
0|
0c
0}
#24500
1!
1C
1|
1c
1}
1j"
0i"
1h"
0[!
1]!
1X!
1Z!
1U!
0W!
0X!
0V!
1[!
0]!
1Y!
1^!
0\!
0^!
1\!
0Y!
#25200
0!
0C
0|
0c
0}
#25900
1!
1C
1|
1c
1}
0j"
0U!
1W!
1j!
1k!
1X!
1V!
0V!
0\!
0l!
0m!
#26600
0!
0C
0|
0c
0}
#27300
1!
1C
1|
1c
1}
0h"
0n!
0_
1l!
0[!
0j!
0k!
1m!
0o!
1V!
1Y!
0l!
0m!
#28000
0!
0C
0|
0c
0}
#28700
1!
1C
1|
1c
1}
1j"
1i"
0X!
0Z!
1U!
0W!
1X!
1Z!
0V!
1[!
0Y!
1\!
0[!
1Y!
0\!
#29400
0!
0C
0|
0c
0}
#30100
1!
1C
1|
1c
1}
0j"
0U!
1W!
0X!
0Z!
1V!
1[!
0Y!
1\!
#30800
0!
0C
0|
0c
0}
#31500
1!
1C
1|
1c
1}
1j"
0i"
1h"
0[!
1]!
1X!
1Z!
1U!
0W!
0X!
0V!
1[!
0]!
1Y!
1^!
0\!
0^!
1\!
0Y!
#32200
0!
0C
0|
0c
0}
#32900
1!
1C
1|
1c
1}
0j"
0U!
1W!
1j!
1k!
1X!
1V!
0V!
0\!
1l!
1m!
#33600
0!
0C
0|
0c
0}
#34300
1!
1C
1|
1c
1}
0h"
1n!
1_
0l!
0[!
0j!
0k!
0m!
1o!
1V!
1Y!
1l!
1m"
0n"
1m!
0'"
1:"
1;"
0("
0d
1e
0)"
1J"
1C"
0G
1F
09
18
1#"
1%"
1&"
#35000
0!
0C
0|
0c
0}
#35700
1!
1C
1|
1c
1}
1j"
1i"
0X!
0Z!
1U!
0W!
1X!
1Z!
0V!
1[!
0Y!
1\!
0[!
1Y!
0\!
#36400
0!
0C
0|
0c
0}
#37100
1!
1C
1|
1c
1}
0j"
0U!
1W!
0X!
0Z!
1V!
1[!
0Y!
1\!
#37800
0!
0C
0|
0c
0}
#38500
1!
1C
1|
1c
1}
1j"
0i"
1h"
0[!
1]!
1X!
1Z!
1U!
0W!
0X!
0V!
1[!
0]!
1Y!
1^!
0\!
0^!
1\!
0Y!
#39200
0!
0C
0|
0c
0}
#39900
1!
1C
1|
1c
1}
0j"
0U!
1W!
1j!
1k!
1X!
1V!
0V!
0\!
0l!
0m!
#40600
0!
0C
0|
0c
0}
#41300
1!
1C
1|
1c
1}
0h"
0n!
0_
1l!
0[!
0j!
0k!
1m!
0o!
1V!
1Y!
0l!
0m!
#42000
0!
0C
0|
0c
0}
#42700
1!
1C
1|
1c
1}
1j"
1i"
0X!
0Z!
1U!
0W!
1X!
1Z!
0V!
1[!
0Y!
1\!
0[!
1Y!
0\!
#43400
0!
0C
0|
0c
0}
#44100
1!
1C
1|
1c
1}
0j"
0U!
1W!
0X!
0Z!
1V!
1[!
0Y!
1\!
#44800
0!
0C
0|
0c
0}
#45500
1!
1C
1|
1c
1}
1j"
0i"
1h"
0[!
1]!
1X!
1Z!
1U!
0W!
0X!
0V!
1[!
0]!
1Y!
1^!
0\!
0^!
1\!
0Y!
#46200
0!
0C
0|
0c
0}
#46900
1!
1C
1|
1c
1}
0j"
0U!
1W!
1j!
1k!
1X!
1V!
0V!
0\!
1l!
1m!
#47600
0!
0C
0|
0c
0}
#48300
1!
1C
1|
1c
1}
0h"
1n!
1_
0l!
0[!
0j!
0k!
0m!
1o!
1V!
1Y!
1l!
1n"
1m!
1'"
1("
1d
1)"
1="
0J"
1G
19
0#"
0%"
0&"
1*"
0D"
0q!
0r!
0s!
0t!
0E"
1{!
1|!
1}!
1+"
#49000
0!
0C
0|
0c
0}
#49700
1!
1C
1|
1c
1}
1j"
1i"
0X!
0Z!
1U!
0W!
1X!
1Z!
0V!
1[!
0Y!
1\!
0[!
1Y!
0\!
#50400
0!
0C
0|
0c
0}
#51100
1!
1C
1|
1c
1}
0j"
0U!
1W!
0X!
0Z!
1V!
1[!
0Y!
1\!
#51800
0!
0C
0|
0c
0}
#52500
1!
1C
1|
1c
1}
1j"
0i"
1h"
0[!
1]!
1X!
1Z!
1U!
0W!
0X!
0V!
1[!
0]!
1Y!
1^!
0\!
0^!
1\!
0Y!
#53200
0!
0C
0|
0c
0}
#53900
1!
1C
1|
1c
1}
0j"
0U!
1W!
1j!
1k!
1X!
1V!
0V!
0\!
0l!
0m!
#54600
0!
0C
0|
0c
0}
#55300
1!
1C
1|
1c
1}
0h"
0n!
0_
1l!
0[!
0j!
0k!
1m!
0o!
1V!
1Y!
0l!
0m!
#56000
0!
0C
0|
0c
0}
#56700
1!
1C
1|
1c
1}
1j"
1i"
0X!
0Z!
1U!
0W!
1X!
1Z!
0V!
1[!
0Y!
1\!
0[!
1Y!
0\!
#57400
0!
0C
0|
0c
0}
#58100
1!
1C
1|
1c
1}
0j"
0U!
1W!
0X!
0Z!
1V!
1[!
0Y!
1\!
#58800
0!
0C
0|
0c
0}
#59500
1!
1C
1|
1c
1}
1j"
0i"
1h"
0[!
1]!
1X!
1Z!
1U!
0W!
0X!
0V!
1[!
0]!
1Y!
1^!
0\!
0^!
1\!
0Y!
#60200
0!
0C
0|
0c
0}
#60900
1!
1C
1|
1c
1}
0j"
0U!
1W!
1j!
1k!
1X!
1V!
0V!
0\!
1l!
1m!
#61600
0!
0C
0|
0c
0}
#62300
1!
1C
1|
1c
1}
0h"
1n!
1_
0l!
0[!
0j!
0k!
0m!
1o!
1V!
1Y!
1l!
0m"
1l"
0n"
1m!
0'"
1~!
0:"
0;"
1!"
0("
0d
1f
0e
0)"
1J"
1""
0="
0C"
0G
1E
0F
09
08
17
1#"
1%"
1&"
#63000
0!
0C
0|
0c
0}
#63700
1!
1C
1|
1c
1}
1j"
1i"
0X!
0Z!
1U!
0W!
1X!
1Z!
0V!
1[!
0Y!
1\!
0[!
1Y!
0\!
#64400
0!
0C
0|
0c
0}
#65100
1!
1C
1|
1c
1}
0j"
0U!
1W!
0X!
0Z!
1V!
1[!
0Y!
1\!
#65800
0!
0C
0|
0c
0}
#66500
1!
1C
1|
1c
1}
1j"
0i"
1h"
0[!
1]!
1X!
1Z!
1U!
0W!
0X!
0V!
1[!
0]!
1Y!
1^!
0\!
0^!
1\!
0Y!
#67200
0!
0C
0|
0c
0}
#67900
1!
1C
1|
1c
1}
0j"
0U!
1W!
1j!
1k!
1X!
1V!
0V!
0\!
0l!
0m!
#68600
0!
0C
0|
0c
0}
#69300
1!
1C
1|
1c
1}
0h"
0n!
0_
1l!
0[!
0j!
0k!
1m!
0o!
1V!
1Y!
0l!
0m!
#70000
0!
0C
0|
0c
0}
#70700
1!
1C
1|
1c
1}
1j"
1i"
0X!
0Z!
1U!
0W!
1X!
1Z!
0V!
1[!
0Y!
1\!
0[!
1Y!
0\!
#71400
0!
0C
0|
0c
0}
#72100
1!
1C
1|
1c
1}
0j"
0U!
1W!
0X!
0Z!
1V!
1[!
0Y!
1\!
#72800
0!
0C
0|
0c
0}
#73500
1!
1C
1|
1c
1}
1j"
0i"
1h"
0[!
1]!
1X!
1Z!
1U!
0W!
0X!
0V!
1[!
0]!
1Y!
1^!
0\!
0^!
1\!
0Y!
#74200
0!
0C
0|
0c
0}
#74900
1!
1C
1|
1c
1}
0j"
0U!
1W!
1j!
1k!
1X!
1V!
0V!
0\!
1l!
1m!
#75600
0!
0C
0|
0c
0}
#76300
1!
1C
1|
1c
1}
0h"
1n!
1_
0l!
0[!
0j!
0k!
0m!
1o!
1V!
1Y!
1l!
1n"
1m!
1'"
1("
1d
1)"
0J"
1G
19
0#"
0%"
0&"
1D"
1q!
1r!
1s!
1t!
1E"
#77000
0!
0C
0|
0c
0}
#77700
1!
1C
1|
1c
1}
1j"
1i"
0X!
0Z!
1U!
0W!
1X!
1Z!
0V!
1[!
0Y!
1\!
0[!
1Y!
0\!
#78400
0!
0C
0|
0c
0}
#79100
1!
1C
1|
1c
1}
0j"
0U!
1W!
0X!
0Z!
1V!
1[!
0Y!
1\!
#79800
0!
0C
0|
0c
0}
#80500
1!
1C
1|
1c
1}
1j"
0i"
1h"
0[!
1]!
1X!
1Z!
1U!
0W!
0X!
0V!
1[!
0]!
1Y!
1^!
0\!
0^!
1\!
0Y!
#81200
0!
0C
0|
0c
0}
#81900
1!
1C
1|
1c
1}
0j"
0U!
1W!
1j!
1k!
1X!
1V!
0V!
0\!
0l!
0m!
#82600
0!
0C
0|
0c
0}
#83300
1!
1C
1|
1c
1}
0h"
0n!
0_
1l!
0[!
0j!
0k!
1m!
0o!
1V!
1Y!
0l!
0m!
#84000
0!
0C
0|
0c
0}
#84700
1!
1C
1|
1c
1}
1j"
1i"
0X!
0Z!
1U!
0W!
1X!
1Z!
0V!
1[!
0Y!
1\!
0[!
1Y!
0\!
#85400
0!
0C
0|
0c
0}
#86100
1!
1C
1|
1c
1}
0j"
0U!
1W!
0X!
0Z!
1V!
1[!
0Y!
1\!
#86800
0!
0C
0|
0c
0}
#87500
1!
1C
1|
1c
1}
1j"
0i"
1h"
0[!
1]!
1X!
1Z!
1U!
0W!
0X!
0V!
1[!
0]!
1Y!
1^!
0\!
0^!
1\!
0Y!
#88200
0!
0C
0|
0c
0}
#88900
1!
1C
1|
1c
1}
0j"
0U!
1W!
1j!
1k!
1X!
1V!
0V!
0\!
1l!
1m!
#89600
0!
0C
0|
0c
0}
